{
  "kind": "collectionType",
  "collectionName": "kategoris",
  "info": {
    "name": "Kategori"
  },
  "options": {
    "increments": true,
    "timestamps": true
  },
  "attributes": {
    "name_tr": {
      "type": "string"
    },
    "urunlers": {
      "via": "kategori",
      "collection": "urunler"
    },
    "name_en": {
      "type": "string"
    },
    "image": {
      "model": "file",
      "via": "related",
      "allowedTypes": [
        "images"
      ],
      "plugin": "upload",
      "required": true
    }
  }
}
